
/* WARNING: Control flow encountered bad instruction data */

void FUN_0011c9e0(int param_1,ulonglong *param_2,ulonglong *param_3)

{
  undefined *puVar1;
  undefined4 uVar2;
  int iVar3;
  uint uVar4;
  int iVar5;
  longlong lVar6;
  ulonglong uVar7;
  longlong lVar8;
  longlong lVar9;
  longlong lVar10;
  longlong lVar11;
  ulonglong uVar12;
  uint uVar13;
  undefined8 uStack192;
  undefined8 uStack184;
  int iStack176;
  int iStack172;
  undefined4 uStack168;
  
  iStack176 = param_1;
  *(undefined4 *)(param_3 + 5) = *(undefined4 *)(param_2 + 3);
  puVar1 = &uStack192 + 7;
  uVar4 = (uint)puVar1 & 7;
  *(ulonglong *)(puVar1 + -uVar4) =
       *(ulonglong *)(puVar1 + -uVar4) & -1 << (uVar4 + 1) * 8 |
       0x2010180818081000U >> (7 - uVar4) * 8;
  uStack192 = 0x2010180818081000;
  puVar1 = &uStack184 + 7;
  uVar4 = (uint)puVar1 & 7;
  *(ulonglong *)(puVar1 + -uVar4) =
       *(ulonglong *)(puVar1 + -uVar4) & -1 << (uVar4 + 1) * 8 |
       0x3828302030202818U >> (7 - uVar4) * 8;
  uStack184 = 0x3828302030202818;
  FUN_00123b40(param_2,0x18);
  lVar6 = FUN_00123b40(param_2,8);
  *param_3 = lVar6 << 0x20;
  uVar2 = FUN_00123b40(param_2,0x10);
  uVar12 = *param_3;
  *(undefined4 *)(param_3 + 1) = uVar2;
  param_3[2] = 0xffffffffffffffff;
  param_3[3] = 0xffffffffffffffff;
  if (uVar12 != ZEXT48(&_mips_gp0_value)) {
    if ((((uVar12 != ZEXT48(&_mips_gp0_value)) && (uVar12 != ZEXT48(&_mips_gp0_value))) &&
        (uVar12 != 0xf000000000)) &&
       (((uVar12 != ZEXT48(&_mips_gp0_value) && (uVar12 != 0xff00000000)) &&
        ((uVar12 != ZEXT48(&_mips_gp0_value) && (uVar12 != 0xf800000000)))))) {
      FUN_00123b40(param_2,2);
      uVar2 = FUN_00123b40(param_2,2);
      *(undefined4 *)((int)param_3 + 0xc) = uVar2;
      FUN_00123b40(param_2,4);
      uVar12 = FUN_00123b40(param_2,2);
      iStack172 = FUN_00123b40(param_2,1);
      iVar3 = FUN_00123b40(param_2,4);
      lVar6 = FUN_00123b40(param_2,1);
      uStack168 = FUN_00123b40(param_2,8);
      if ((uVar12 & 2) != 0) {
        FUN_00123b40(param_2,4);
        uVar4 = FUN_00123b40(param_2,3);
        FUN_00123b90(param_2);
        iVar5 = FUN_00123b40(param_2,0xf);
        FUN_00123b90(param_2);
        uVar7 = FUN_00123b40(param_2,0xf);
        FUN_00123b90(param_2);
        param_3[2] = ((longlong)(int)(uVar4 >> 2) & 1U) << 0x20 |
                     ((longlong)(int)(uVar4 << 0x1e | iVar5 << 0xf) | uVar7) & 0xffffffff;
      }
      if (uVar12 == 3) {
        FUN_00123b40(param_2,4);
        uVar4 = FUN_00123b40(param_2,3);
        FUN_00123b90(param_2);
        iVar5 = FUN_00123b40(param_2,0xf);
        FUN_00123b90(param_2);
        uVar12 = FUN_00123b40(param_2,0xf);
        FUN_00123b90(param_2);
        param_3[3] = ((longlong)(int)(uVar4 >> 2) & 1U) << 0x20 |
                     ((longlong)(int)(uVar4 << 0x1e | iVar5 << 0xf) | uVar12) & 0xffffffff;
      }
      if (iStack172 == 1) {
        FUN_00123b40(param_2,0x30);
      }
      if (iVar3 != 0) {
        FUN_00123b40(param_2,(ulonglong)(byte)(&uStack192)[iVar3]);
      }
      if (lVar6 == 1) {
        lVar6 = FUN_00123b40(param_2,1);
        lVar8 = FUN_00123b40(param_2,1);
        lVar9 = FUN_00123b40(param_2,1);
        lVar10 = FUN_00123b40(param_2,1);
        FUN_00123b40(param_2,3);
        lVar11 = FUN_00123b40(param_2,1);
        if (lVar6 == 1) {
          FUN_00123b40(param_2,0x30);
          FUN_00123b40(param_2,0x30);
          FUN_00123b40(param_2,0x20);
        }
        if (lVar8 == 1) {
                    /* WARNING: Subroutine does not return */
          FUN_0011dce8(iStack176,0x15d700);
        }
        if (lVar9 == 1) {
          FUN_00123b40(param_2,0x10);
        }
        if (lVar10 == 1) {
          FUN_00123b40(param_2,0x10);
        }
        if (lVar11 == 1) {
          uVar13 = 0;
          FUN_00123b90(param_2);
          uVar4 = FUN_00123b40(param_2,7);
          if (uVar4 != 0) {
            do {
              FUN_00123b40(param_2,8);
              uVar13 = uVar13 + 1;
            } while (uVar13 < uVar4);
          }
        }
      }
                    /* WARNING: Bad instruction - Truncating control flow here */
      halt_baddata();
    }
    if ((((uVar12 != ZEXT48(&_mips_gp0_value)) && (uVar12 != ZEXT48(&_mips_gp0_value))) &&
        ((uVar12 != 0xf000000000 &&
         (((uVar12 != ZEXT48(&_mips_gp0_value) && (uVar12 != 0xff00000000)) &&
          (uVar12 != ZEXT48(&_mips_gp0_value))))))) && (uVar12 != 0xf800000000)) {
      if (uVar12 != ZEXT48(&_mips_gp0_value)) {
        return;
      }
      if ((longlong)*(int *)(param_3 + 1) == 0) {
        return;
      }
      FUN_00123bd8(param_2,(longlong)*(int *)(param_3 + 1));
      return;
    }
  }
  iVar3 = *(int *)(param_3 + 1);
  if (uVar12 == ZEXT48(&_mips_gp0_value)) {
    uVar12 = FUN_00123b40(param_2,0x20);
    iVar3 = iVar3 + -4;
    *param_3 = *param_3 | uVar12 & 0xffffffff;
  }
  if ((longlong)iVar3 != 0) {
    FUN_00123bd8(param_2,(longlong)iVar3);
  }
                    /* WARNING: Bad instruction - Truncating control flow here */
  halt_baddata();
}

